Basic usage • tradestatistics
…
The most aggregated table is yr which basically says how many dollars each country exports and imports for a given year.

The less aggregated table is yrpc which says how many dollars of each of the 1,242 commodities from the Harmonized System each country exports to other countries and imports from other countries.

For the complete detail you can check tradestatistics.io.

Country codes

The Package Functions section explains that you don’t need to memorize all ISO codes. The functions within this package are designed to match strings (i.e. “United States” or “America”) to valid ISO codes (i.e. “USA”).

Just as a reference, the table with all valid ISO codes can be accessed by running this:

as_tibble(ots_countries)
#> # A tibble: 264 × 5
#>    country_iso country_name_english country_fullname_english continent_id
#>    <chr>       <chr>                <chr>                           <int>
#>  1 dza         Algeria              Algeria                             3
#>  2 ago         Angola               Angola                              3
#>  3 ben         Benin                Benin                               3
#>  4 bwa         Botswana             Botswana                            3
#>  5 bfa         Burkina Faso         Burkina Faso                        3
#>  6 bdi         Burundi              Burundi                             3
#>  7 cmr         Cameroon             Cameroon                            3
#>  8 cpv         Cape Verde           Cape Verde                          3
#>  9 caf         Central African Rep. Central African Rep.                3
#> 10 tcd         Chad                 Chad                                3
#> # ℹ 254 more rows
#> # ℹ 1 more variable: continent_name_english <chr>

Commodity codes

The Package Functions section explains that you don’t need to memorize all HS codes. The functions within this package are designed to match strings (i.e. “apple”) to valid HS codes (i.e. “0808”).

as_tibble(ots_commodities)
#> # A tibble: 5,304 × 4
#>    commodity_code commodity_fullname_english section_code section_fullname_eng…¹
#>    <chr>          <chr>                      <chr>        <chr>                 
#>  1 010121         Horses; live, pure-bred b… 01           Live animals and anim…
#>  2 010129         Horses; live, other than … 01           Live animals and anim…
#>  3 010130         Asses; live                01           Live animals and anim…
#>  4 010190         Mules and hinnies; live    01           Live animals and anim…
#>  5 010221         Cattle; live, pure-bred b… 01           Live animals and anim…
#>  6 010229         Cattle; live, other than … 01           Live animals and anim…
#>  7 010231         Buffalo; live, pure-bred … 01           Live animals and anim…
#>  8 010239         Buffalo; live, other than… 01           Live animals and anim…
#>  9 010290         Bovine animals; live, oth… 01           Live animals and anim…
#> 10 010310         Swine; live, pure-bred br… 01           Live animals and anim…
#> # ℹ 5,294 more rows
#> # ℹ abbreviated name: ¹​section_fullname_english

Inflation data

This table is provided to be used with ots_gdp_deflator_adjustment().

as_tibble(ots_gdp_deflator)
#> # A tibble: 4,084 × 4
#>    country_iso  from    to gdp_deflator
#>    <chr>       <int> <int>        <dbl>
#>  1 abw          2000  2001        1.06 
#>  2 abw          2001  2002        1.05 
#>  3 abw          2002  2003        1.02 
#>  4 abw          2003  2004        1.02 
#>  5 abw          2004  2005        1.03 
#>  6 abw          2005  2006        1.03 
#>  7 abw          2006  2007        1.06 
#>  8 abw          2007  2008        1.05 
#>  9 abw          2008  2009        1.02 
#> 10 abw          2009  2010        0.993
#> # ℹ 4,074 more rows
…
